<svg width="7" height="9" viewBox="0 0 7 9" fill="none" xmlns="http://www.w3.org/2000/svg">
<path d="M6.23145 4.47461C6.23145 4.23047 6.14355 4.03027 5.94336 3.83984L2.25195 0.22168C2.10547 0.0751953 1.9248 0.00195312 1.70996 0.00195312C1.28027 0.00195312 0.928711 0.353516 0.928711 0.77832C0.928711 0.993164 1.0166 1.19336 1.17773 1.34961L4.39551 4.46973L1.17773 7.59473C1.0166 7.75586 0.928711 7.95117 0.928711 8.1709C0.928711 8.60059 1.28027 8.94727 1.70996 8.94727C1.9248 8.94727 2.10547 8.87402 2.25195 8.72754L5.94336 5.10938C6.14844 4.91406 6.23145 4.71387 6.23145 4.47461Z" fill="#051226"/>
<path d="M6.23145 4.47461C6.23145 4.23047 6.14355 4.03027 5.94336 3.83984L2.25195 0.22168C2.10547 0.0751953 1.9248 0.00195312 1.70996 0.00195312C1.28027 0.00195312 0.928711 0.353516 0.928711 0.77832C0.928711 0.993164 1.0166 1.19336 1.17773 1.34961L4.39551 4.46973L1.17773 7.59473C1.0166 7.75586 0.928711 7.95117 0.928711 8.1709C0.928711 8.60059 1.28027 8.94727 1.70996 8.94727C1.9248 8.94727 2.10547 8.87402 2.25195 8.72754L5.94336 5.10938C6.14844 4.91406 6.23145 4.71387 6.23145 4.47461Z" fill="white" fill-opacity="0.4"/>
</svg>
