<svg width="16" height="9" viewBox="0 0 16 9" fill="none" xmlns="http://www.w3.org/2000/svg">
<path d="M8.14844 8.85156C8.53906 8.85156 8.86719 8.70312 9.17188 8.39062L14.9531 2.47656C15.1875 2.24219 15.3047 1.96094 15.3047 1.61719C15.3047 0.921875 14.75 0.359375 14.0625 0.359375C13.7266 0.359375 13.4062 0.5 13.1484 0.757812L8.15625 5.91406L3.15625 0.757812C2.89844 0.5 2.57812 0.359375 2.23438 0.359375C1.54688 0.359375 0.992188 0.921875 0.992188 1.61719C0.992188 1.95312 1.10938 2.23438 1.34375 2.47656L7.125 8.39062C7.44531 8.71094 7.76562 8.85156 8.14844 8.85156Z" fill="#051226"/>
</svg>
