<svg width="12" height="12" viewBox="0 0 12 12" fill="none" xmlns="http://www.w3.org/2000/svg">
<path fill-rule="evenodd" clip-rule="evenodd" d="M6 1.875C3.72183 1.875 1.875 3.72183 1.875 6C1.875 8.27818 3.72183 10.125 6 10.125C8.27818 10.125 10.125 8.27818 10.125 6C10.125 3.72183 8.27818 1.875 6 1.875ZM1.125 6C1.125 3.30761 3.30761 1.125 6 1.125C8.69239 1.125 10.875 3.30761 10.875 6C10.875 8.69239 8.69239 10.875 6 10.875C3.30761 10.875 1.125 8.69239 1.125 6ZM6 5.125C6.20711 5.125 6.375 5.29289 6.375 5.5V8C6.375 8.20711 6.20711 8.375 6 8.375C5.79289 8.375 5.625 8.20711 5.625 8V5.5C5.625 5.29289 5.79289 5.125 6 5.125ZM6 4.5C6.27614 4.5 6.5 4.27614 6.5 4C6.5 3.72386 6.27614 3.5 6 3.5C5.72386 3.5 5.5 3.72386 5.5 4C5.5 4.27614 5.72386 4.5 6 4.5Z" fill="#051226"/>
<path fill-rule="evenodd" clip-rule="evenodd" d="M6 1.875C3.72183 1.875 1.875 3.72183 1.875 6C1.875 8.27818 3.72183 10.125 6 10.125C8.27818 10.125 10.125 8.27818 10.125 6C10.125 3.72183 8.27818 1.875 6 1.875ZM1.125 6C1.125 3.30761 3.30761 1.125 6 1.125C8.69239 1.125 10.875 3.30761 10.875 6C10.875 8.69239 8.69239 10.875 6 10.875C3.30761 10.875 1.125 8.69239 1.125 6ZM6 5.125C6.20711 5.125 6.375 5.29289 6.375 5.5V8C6.375 8.20711 6.20711 8.375 6 8.375C5.79289 8.375 5.625 8.20711 5.625 8V5.5C5.625 5.29289 5.79289 5.125 6 5.125ZM6 4.5C6.27614 4.5 6.5 4.27614 6.5 4C6.5 3.72386 6.27614 3.5 6 3.5C5.72386 3.5 5.5 3.72386 5.5 4C5.5 4.27614 5.72386 4.5 6 4.5Z" fill="white" fill-opacity="0.2"/>
</svg>
