<svg width="10" height="15" viewBox="0 0 10 15" fill="none" xmlns="http://www.w3.org/2000/svg">
<path d="M4.51562 10.4062C5.27344 10.4062 5.80469 10.0859 6.00781 9.42188C6.01562 9.39062 6.03906 9.33594 6.04688 9.3125C6.21094 8.74219 6.50781 8.46094 7.78125 7.72656C9.20312 6.89844 9.83594 5.96094 9.83594 4.57812C9.83594 2.21875 7.89844 0.726562 4.94531 0.726562C2.75781 0.726562 1.125 1.53906 0.46875 2.70312C0.265625 3.05469 0.164062 3.44531 0.164062 3.84375C0.15625 4.75781 0.789062 5.36719 1.76562 5.36719C2.46875 5.36719 3.07812 5.02344 3.375 4.41406C3.67188 3.79688 4.125 3.52344 4.75781 3.52344C5.5 3.52344 6.0625 4 6.0625 4.65625C6.0625 5.45312 5.71875 5.8125 4.42188 6.57031C3.46875 7.125 2.88281 7.78125 2.88281 8.76562V8.84375C2.88281 9.78125 3.55469 10.4062 4.51562 10.4062ZM4.57031 14.8438C5.63281 14.8438 6.50781 14.0391 6.50781 13.0156C6.50781 12 5.63281 11.1953 4.57031 11.1953C3.5 11.1953 2.63281 12 2.63281 13.0156C2.63281 14.0391 3.5 14.8438 4.57031 14.8438Z" fill="white"/>
</svg>
